si544-day11-inference-for-regression
…
## # A tibble: 1 x 4
##   mean_price median_price sd_price IQR_price
##        <dbl>        <dbl>    <dbl>     <dbl>
## 1    540088.       450000  367127.    323050

house_prices <- house_prices %>%
  mutate(
    log10_price = log10(price),
    log10_size = log10(sqft_living)
    )

house_prices %>% dplyr::select(price, log10_price, sqft_living, log10_size)

## # A tibble: 21,613 x 4
##      price log10_price sqft_living log10_size
##      <dbl>       <dbl>       <int>      <dbl>
##  1  221900        5.35        1180       3.07
##  2  538000        5.73        2570       3.41
##  3  180000        5.26         770       2.89
##  4  604000        5.78        1960       3.29
##  5  510000        5.71        1680       3.23
##  6 1225000        6.09        5420       3.73
##  7  257500        5.41        1715       3.23
##  8  291850        5.47        1060       3.03
##  9  229500        5.36        1780       3.25
## 10  323000        5.51        1890       3.28
## #  with 21,603 more rows
…
Use infer() to calculate a 95% confidence interval for the slope parameter in the previous regression.

house_prices %>%  summarize(stat = mean(log10_price))

## # A tibble: 1 x 1
##    stat
##   <dbl>
## 1  5.67

bootstrap_distribution_prices <- house_prices %>% 
  specify(response = log10_price) %>% generate(reps = 1000, replace = TRUE, type="bootstrap") %>% calculate(stat = "mean")

bootstrap_distribution_prices

## # A tibble: 1,000 x 2
##    replicate  stat
##        <int> <dbl>
##  1         1  5.67
##  2         2  5.67
##  3         3  5.67
##  4         4  5.67
##  5         5  5.66
##  6         6  5.67
##  7         7  5.67
##  8         8  5.67
##  9         9  5.67
## 10        10  5.67
## #  with 990 more rows
…
