si544-day8-multiple-regression
…
## 
## Attaching package: 'skimr'

## The following object is masked from 'package:stats':
## 
##     filter

Simplify our dataset:

evals_day8 <- evals %>% select(ID, score, age, gender)
evals_day8

## # A tibble: 463 x 4
##       ID score   age gender
##    <int> <dbl> <int> <fct> 
##  1     1   4.7    36 female
##  2     2   4.1    36 female
##  3     3   3.9    36 female
##  4     4   4.8    36 female
##  5     5   4.6    59 male  
##  6     6   4.3    59 male  
##  7     7   2.8    59 male  
##  8     8   4.1    51 male  
##  9     9   3.4    51 male  
## 10    10   4.5    40 female
## #  with 453 more rows
…
## # A tibble: 4 x 7
##   term           estimate std_error statistic p_value lower_ci upper_ci
##   <chr>             <dbl>     <dbl>     <dbl>   <dbl>    <dbl>    <dbl>
## 1 intercept         4.88      0.205     23.8    0        4.48     5.29 
## 2 age              -0.018     0.004     -3.92   0       -0.026   -0.009
## 3 gendermale       -0.446     0.265     -1.68   0.094   -0.968    0.076
## 4 age:gendermale    0.014     0.006      2.45   0.015    0.003    0.024

Lets look at the residuals:

get_regression_points(score_model_interaction)

## # A tibble: 463 x 6
##       ID score   age gender score_hat residual
##    <int> <dbl> <int> <fct>      <dbl>    <dbl>
##  1     1   4.7    36 female      4.25    0.448
##  2     2   4.1    36 female      4.25   -0.152
##  3     3   3.9    36 female      4.25   -0.352
##  4     4   4.8    36 female      4.25    0.548
##  5     5   4.6    59 male        4.20    0.399
##  6     6   4.3    59 male        4.20    0.099
##  7     7   2.8    59 male        4.20   -1.40 
##  8     8   4.1    51 male        4.23   -0.133
##  9     9   3.4    51 male        4.23   -0.833
## 10    10   4.5    40 female      4.18    0.318
## #  with 453 more rows
…
