si544-day10-hypothesis-testing
…
library(infer)
library(moderndive)
library(nycflights13)
library(ggplot2movies)
library(knitr)

Promotions

Let’s take a look at the promotions data:

promotions

## # A tibble: 48 x 3
##       id decision gender
##    <int> <fct>    <fct> 
##  1     1 promoted male  
##  2     2 promoted male  
##  3     3 promoted male  
##  4     4 promoted male  
##  5     5 promoted male  
##  6     6 promoted male  
##  7     7 promoted male  
##  8     8 promoted male  
##  9     9 promoted male  
## 10    10 promoted male  
## # … with 38 more rows
…
## # A tibble: 6 x 3
##      id decision gender
##   <int> <fct>    <fct> 
## 1     1 promoted male  
## 2     5 promoted male  
## 3     6 promoted male  
## 4    20 promoted female
## 5    21 promoted male  
## 6    47 not      male

Shuffled

promotions_shuffled

## # A tibble: 48 x 3
##       id decision gender
##    <int> <fct>    <fct> 
##  1     1 promoted female
##  2     2 promoted female
##  3     3 promoted male  
##  4     4 promoted female
##  5     5 promoted male  
##  6     6 promoted male  
##  7     7 promoted male  
##  8     8 promoted female
##  9     9 promoted male  
## 10    10 promoted female
## # … with 38 more rows
…
## # A tibble: 1 x 1
##    stat
##   <dbl>
## 1 0.292

alpha <- 0.001 # We won't use this today

promotions %>% 
  specify(formula = decision ~ gender, success = "promoted")

## Response: decision (factor)
## Explanatory: gender (factor)
## # A tibble: 48 x 2
##    decision gender
##    <fct>    <fct> 
##  1 promoted male  
##  2 promoted male  
##  3 promoted male  
##  4 promoted male  
##  5 promoted male  
##  6 promoted male  
##  7 promoted male  
##  8 promoted male  
##  9 promoted male  
## 10 promoted male  
## # … with 38 more rows

promotions %>% 
  specify(formula = decision ~ gender, success = "promoted") %>% 
  hypothesize(null = "independence")

## # A tibble: 48 x 2
##    decision gender
##    <fct>    <fct> 
##  1 promoted male  
##  2 promoted male  
##  3 promoted male  
##  4 promoted male  
##  5 promoted male  
##  6 promoted male  
##  7 promoted male  
##  8 promoted male  
##  9 promoted male  
## 10 promoted male  
## # … with 38 more rows

promotions %>%
 specify(formula = decision ~ gender, success = "promoted") %>%
 hypothesize(null = "independence") %>%
 generate(reps = 1000, type = "permute")

## Response: decision (factor)
## Explanatory: gender (factor)
## Null Hypothesis: independence
## # A tibble: 48,000 x 3
## # Groups:   replicate [1,000]
##    decision gender replicate
##    <fct>    <fct>      <int>
##  1 not      male           1
##  2 promoted male           1
##  3 promoted male           1
##  4 promoted male           1
##  5 promoted male           1
##  6 promoted male           1
##  7 promoted male           1
##  8 promoted male           1
##  9 not      male           1
## 10 promoted male           1
## # … with 47,990 more rows

null_distribution <- promotions %>%
 specify(formula = decision ~ gender, success = "promoted") %>%
 hypothesize(null = "independence") %>%
 generate(reps = 1000, type = "permute") %>%
 calculate(stat = "diff in props", order = c("male", "female"))
null_distribution

## # A tibble: 1,000 x 2
##    replicate    stat
##        <int>   <dbl>
##  1         1 -0.0417
##  2         2  0.208 
##  3         3  0.292 
##  4         4 -0.125 
##  5         5  0.0417
##  6         6 -0.125 
##  7         7  0.0417
##  8         8 -0.0417
##  9         9  0.0417
## 10        10  0.208 
## # … with 990 more rows
…
