Problem Set 3 - Boston
…
Question 2 (10 Points)

Use bootstrapping with the percentile method to compute a 95% confidence interval for the average pupil-teacher ratio in urban, northeastern United States. Interpret your results in a complete sentence that a non-statistician would understand.

boston %>%  summarize(stat = mean(ptratio))

##       stat
## 1 18.45553

bootstrap_distribution_boston <- boston %>% 
  specify(response = ptratio) %>% generate(reps = 1000, replace = TRUE, type="bootstrap") %>% calculate(stat = "mean")

bootstrap_distribution_boston

## # A tibble: 1,000 x 2
##    replicate  stat
##        <int> <dbl>
##  1         1  18.4
##  2         2  18.4
##  3         3  18.5
##  4         4  18.4
##  5         5  18.4
##  6         6  18.5
##  7         7  18.4
##  8         8  18.4
##  9         9  18.4
## 10        10  18.4
## #  with 990 more rows
…
